<?xml version='1.0' encoding='utf-8'?>
<gexf version="1.2" xmlns="http://www.gexf.net/1.2draft" xmlns:xsi="http://www.w3.org/2001/XMLSchema-instance" xsi:schemaLocation="http://www.w3.org/2001/XMLSchema-instance">
  <graph defaultedgetype="undirected" mode="static" name="">
    <meta>
      <creator>NetworkX 2.1</creator>
      <lastmodified>06/09/2018</lastmodified>
    </meta>
    <nodes>
      <node id="LOOK" label="LOOK" />
      <node id="SEE" label="SEE" />
      <node id="LOOK.FOR" label="LOOK.FOR" />
      <node id="MEET" label="MEET" />
      <node id="LISTEN" label="LISTEN" />
      <node id="HEAR" label="HEAR" />
      <node id="OBEY" label="OBEY" />
      <node id="UNDERSTAND" label="UNDERSTAND" />
      <node id="FIND" label="FIND" />
      <node id="SMELL..PERCEIVE." label="SMELL..PERCEIVE." />
      <node id="GET" label="GET" />
      <node id="FEEL" label="FEEL" />
      <node id="TASTE..SOMETHING." label="TASTE..SOMETHING." />
    </nodes>
    <edges>
      <edge id="0" source="LOOK" target="SEE" weight="25" />
      <edge id="1" source="LOOK" target="LOOK.FOR" weight="3" />
      <edge id="2" source="LOOK" target="FIND" weight="2" />
      <edge id="3" source="SEE" target="LOOK.FOR" weight="4" />
      <edge id="4" source="SEE" target="MEET" weight="1" />
      <edge id="5" source="SEE" target="HEAR" weight="1" />
      <edge id="6" source="SEE" target="UNDERSTAND" weight="1" />
      <edge id="7" source="SEE" target="FIND" weight="4" />
      <edge id="8" source="LOOK.FOR" target="FIND" weight="1" />
      <edge id="9" source="LOOK.FOR" target="HEAR" weight="1" />
      <edge id="10" source="MEET" target="FIND" weight="1" />
      <edge id="11" source="LISTEN" target="HEAR" weight="4" />
      <edge id="12" source="LISTEN" target="OBEY" weight="6" />
      <edge id="13" source="LISTEN" target="UNDERSTAND" weight="2" />
      <edge id="14" source="HEAR" target="OBEY" weight="3" />
      <edge id="15" source="HEAR" target="SMELL..PERCEIVE." weight="1" />
      <edge id="16" source="HEAR" target="UNDERSTAND" weight="1" />
      <edge id="17" source="HEAR" target="FEEL" weight="2" />
      <edge id="18" source="HEAR" target="TASTE..SOMETHING." weight="2" />
      <edge id="19" source="OBEY" target="FEEL" weight="2" />
      <edge id="20" source="OBEY" target="TASTE..SOMETHING." weight="2" />
      <edge id="21" source="UNDERSTAND" target="FIND" weight="3" />
      <edge id="22" source="FIND" target="GET" weight="1" />
      <edge id="23" source="FEEL" target="TASTE..SOMETHING." weight="5" />
    </edges>
  </graph>
</gexf>
