<?xml version='1.0' encoding='utf-8'?>
<gexf version="1.2" xmlns="http://www.gexf.net/1.2draft" xmlns:xsi="http://www.w3.org/2001/XMLSchema-instance" xsi:schemaLocation="http://www.w3.org/2001/XMLSchema-instance">
  <graph defaultedgetype="undirected" mode="static" name="">
    <meta>
      <creator>NetworkX 2.1</creator>
      <lastmodified>06/09/2018</lastmodified>
    </meta>
    <nodes>
      <node id="GET" label="GET" />
      <node id="FIND" label="FIND" />
      <node id="LOOK.FOR" label="LOOK.FOR" />
      <node id="LOOK" label="LOOK" />
      <node id="SEE" label="SEE" />
      <node id="READ" label="READ" />
      <node id="UNDERSTAND" label="UNDERSTAND" />
      <node id="HEAR" label="HEAR" />
      <node id="SEEM" label="SEEM" />
      <node id="FEEL" label="FEEL" />
      <node id="OBEY" label="OBEY" />
      <node id="LISTEN" label="LISTEN" />
      <node id="MEET" label="MEET" />
      <node id="SMELL..PERCEIVE." label="SMELL..PERCEIVE." />
      <node id="TASTE..SOMETHING." label="TASTE..SOMETHING." />
      <node id="KNOW.OR.BE.ABLE" label="KNOW.OR.BE.ABLE" />
      <node id="KNOW..SOMEBODY." label="KNOW..SOMEBODY." />
    </nodes>
    <edges>
      <edge id="0" source="GET" target="FIND" weight="18" />
      <edge id="1" source="GET" target="UNDERSTAND" weight="1" />
      <edge id="2" source="GET" target="OBEY" weight="1" />
      <edge id="3" source="GET" target="MEET" weight="2" />
      <edge id="4" source="FIND" target="SEE" weight="5" />
      <edge id="5" source="FIND" target="READ" weight="1" />
      <edge id="6" source="FIND" target="MEET" weight="20" />
      <edge id="7" source="FIND" target="LOOK.FOR" weight="8" />
      <edge id="8" source="FIND" target="FEEL" weight="1" />
      <edge id="9" source="LOOK.FOR" target="LOOK" weight="15" />
      <edge id="10" source="LOOK.FOR" target="SEE" weight="1" />
      <edge id="11" source="LOOK.FOR" target="MEET" weight="1" />
      <edge id="12" source="LOOK.FOR" target="READ" weight="1" />
      <edge id="13" source="LOOK" target="SEE" weight="29" />
      <edge id="14" source="LOOK" target="SEEM" weight="2" />
      <edge id="15" source="LOOK" target="TASTE..SOMETHING." weight="1" />
      <edge id="16" source="LOOK" target="READ" weight="3" />
      <edge id="17" source="LOOK" target="UNDERSTAND" weight="2" />
      <edge id="18" source="SEE" target="SEEM" weight="5" />
      <edge id="19" source="SEE" target="FEEL" weight="3" />
      <edge id="20" source="SEE" target="UNDERSTAND" weight="3" />
      <edge id="21" source="SEE" target="MEET" weight="9" />
      <edge id="22" source="SEE" target="TASTE..SOMETHING." weight="1" />
      <edge id="23" source="READ" target="SEEM" weight="1" />
      <edge id="24" source="READ" target="MEET" weight="1" />
      <edge id="25" source="UNDERSTAND" target="HEAR" weight="18" />
      <edge id="26" source="UNDERSTAND" target="LISTEN" weight="6" />
      <edge id="27" source="UNDERSTAND" target="FEEL" weight="9" />
      <edge id="28" source="UNDERSTAND" target="SMELL..PERCEIVE." weight="2" />
      <edge id="29" source="UNDERSTAND" target="KNOW.OR.BE.ABLE" weight="5" />
      <edge id="30" source="UNDERSTAND" target="MEET" weight="1" />
      <edge id="31" source="UNDERSTAND" target="KNOW..SOMEBODY." weight="1" />
      <edge id="32" source="HEAR" target="OBEY" weight="11" />
      <edge id="33" source="HEAR" target="LISTEN" weight="33" />
      <edge id="34" source="HEAR" target="FEEL" weight="10" />
      <edge id="35" source="HEAR" target="SMELL..PERCEIVE." weight="5" />
      <edge id="36" source="SEEM" target="FEEL" weight="1" />
      <edge id="37" source="FEEL" target="SMELL..PERCEIVE." weight="9" />
      <edge id="38" source="FEEL" target="LISTEN" weight="4" />
      <edge id="39" source="FEEL" target="MEET" weight="1" />
      <edge id="40" source="FEEL" target="TASTE..SOMETHING." weight="1" />
      <edge id="41" source="OBEY" target="LISTEN" weight="27" />
      <edge id="42" source="LISTEN" target="SMELL..PERCEIVE." weight="2" />
      <edge id="43" source="SMELL..PERCEIVE." target="TASTE..SOMETHING." weight="2" />
    </edges>
  </graph>
</gexf>
